Journal (reproducible report)
…
# 3.0 Examining Data
raw_data_bikes %>% head(n = 5)

## # A tibble: 5 x 9
##   bike.id model  model.year frame.material weight price category  gender url    
##     <dbl> <chr>       <dbl> <chr>           <dbl> <dbl> <chr>     <chr>  <chr>  
## 1    2875 Aeroa~       2020 carbon           7.6   4579 Road - R~ unisex https:~
## 2    2873 Aeroa~       2020 carbon           7.27  6919 Road - R~ unisex https:~
## 3    2874 Aeroa~       2020 carbon           7.1   6429 Road - R~ unisex https:~
## 4    2876 Aeroa~       2020 carbon           7.73  5069 Road - R~ unisex https:~
## 5    2877 Aeroa~       2020 carbon           7.83  3609 Road - R~ unisex https:~

raw_data_shops

## # A tibble: 30 x 5
##    bikeshop.id name                  location                          lat   lng
##          <dbl> <chr>                 <chr>                           <dbl> <dbl>
##  1           1 Zum Goldenen Lenker   Berlin, Berlin                   52.5 13.4 
##  2           2 AlexandeRad           Hamburg, Hamburg                 53.6 10.0 
##  3           3 Fahrradladen 16       Munich, Bavaria                  48.2 11.6 
##  4           4 Bikestation Köln      Cologne, North Rhine-Westphalia  50.9  6.95
##  5           5 Montimare             Frankfurt, Hesse                 50.1  8.68
##  6           6 fahrschneller         Stuttgart, Baden-Württemberg     48.8  9.18
##  7           7 Rad Ab                Düsseldorf, North Rhine-Westph~  51.2  6.79
##  8           8 Lucky Bike            Dortmund, North Rhine-Westphal~  51.5  7.47
##  9           9 Zweirad-Center Stadl~ Essen, North Rhine-Westphalia    51.5  7.01
## 10          10 WITT-RAD              Bremen, Bremen                   53.1  8.83
## # ... with 20 more rows
…
